…
```
## [1] 249
```

5. The variables `common_name` and `taxonomic_code` both refer to species. How many unique species are represented in the data based on each of these variables? Are the numbers the same or different?

``` r
fisheries_clean %>%
  group_by(common_name, taxonomic_code) %>%
  distinct(common_name) %>%
  count()
```

```
## # A tibble: 3,722 × 3
## # Groups:   common_name, taxonomic_code [3,722]
##    common_name               taxonomic_code     n
##    <fct>                     <fct>          <int>
##  1 Aba                       117806101001       1
##  2 Abalones NEI              3701112010XX       1
##  3 Abu mullet                165001109001       1
##  4 Abyssal smooth-head       121514007801       1
##  5 Abyssal spiderfish        145504101403       1
##  6 Acadian redfish           172525111418       1
##  7 Acoupa weakfish           182006107401       1
##  8 Adriatic sole             155220107003       1
##  9 Aesop shrimp              228927103410       1
## 10 African armoured searobin 172520103401       1
## # ℹ 3,712 more rows
```
…
